{
  "type": "service_account",
  "project_id": "taboor",
  "private_key_id": "b25b763338ff88ce2054ae5b4b9580f9a7e5303b",
  "private_key": "-----BEGIN PRIVATE KEY-----\nMIIEvQIBADANBgkqhkiG9w0BAQEFAASCBKcwggSjAgEAAoIBAQCrYgLWkDt6j1lU\nlSW5CoS5yanZATtFjidbZz8up92ejyQIx8EAzqrgcz/aGs4NMY7emvTZI2YY57pB\nRB1ey+4o5Nnx1z1yvMSvw31L5dwTlgX+HAfAFCGX0I5E75qOAqo/HA17ZoR6TyVw\nlXC77JPB2gIYNeCPoqkRSp233OXYNWBKqyrvRH7Yk2GoOnOP6okLRoRI4vCh6yOP\n0tctyMxIqcs8UhysZnMrZSeeVS6ZsQ4hcfmV8dT4rtYlqxsxg5uAoEeIs/ATkUx3\n7SV4xpxGxf8qFuycRiYy35yhLawRFovBpcXD+VV/oY6kOab4MUZN7K+ox5ljosCE\n3/pa96Q3AgMBAAECggEAItbNQeXXGX6Lh8y7+uY+/e+XVfRQor6XlJaj+u2H+UQa\n7KgCvZHFndP/3mwFiBwTcYAplvyBtD1jGQJqQAuPsgN3pJh/NtRV3W8NiQDEoLym\nIjZ7gtn0zEJKsYvNrOGwzxx6RyQbeSuerkjKvoEEtmsFcvt812YXHVtAPZCrrqwx\ntxribEY220Wxl2hIhqBIQ2rs8uDDHVbqNFst144/AXqVfSsD+lkssqhQjXPLpyhi\n/X71jbgoYqyxi7eCmQdmjdSbhbwutBPO9PCHDGG3uxibkZnUVNPXU4ABKqc6qdkn\ntJXd+KRLINEe1VXKUkDH/tAdEOw2WqbFQEiyivpz/QKBgQDgT9Rm7iVto7dneCW2\nKUK66y6PN6ieKaPn6p+X7imPsHAzFyAGLWZkTkkPfBBV7aiyT22Imjdeht64+ibi\n3k82Pg5jMmDmgbsdMndNahATgDV7IZrG4Hlr5Mg4g820segNUC9ro8+nk6FBnNfq\nCzyhFWwY+iawEg2hhLaHH4a/MwKBgQDDmAVOKV2mYxw8pxXxLeCFrbzjMOGpVQHm\n920QIw5qw/LJEDs42zGdPrmNdZJP5WtYVcK0KtJf3pTW0scYCsMIDN5m19L09y34\ndDs/Bq0ATOJ++bXJMqKm97ODxPm2xHYDbgpg4TeMQQaGHBMazXp/H7s1SYBEs35G\njg+DKwzW7QKBgAdZNiklFh7QZTrDieC8203KVJ0mgqSj0pXPbukISV5GtnZGBKuP\nIzKYCfay5soZ3hPxXDJEcxnqqzM+JrX5+Hhbchc32ErU5y9ert/fYKVy5s2g3TQ0\nuGWbeh+32a5YwbRl8xfApxXjVT4UCFLHiXXxgLgUwd20ybOH6H7mvoBXAoGBAJPi\nSgiZ0BvwjbXyIu3yYPLRtKIWIFiWVFTcOJLd3pWsx9Fru0s2t6GLfmHNRi2waWQl\nm4v7YIpp0SFHxo6P/HwGttUNU4wxo4lZ4D27/2vdtdaJWP/hkAcr+4eik6ezjQL0\n3VX4krYxqAwYB/3Y5Ehfpn0YsKnBCLWxzVrAXvnVAoGAcAmmcjC4xRzvdUDMAZGG\nYa2JlHZqJPHswYInGvhboWSdRLN9bAzKgsh20u0WoWepomU3bdcoNWPw8VsKxFOE\n4GiEetxxz9UxF8zYI9YxNz8oLCIDvtrBobQxNEHetEHKBokj7ly83/rTSSZA4oIA\nDBv8VcYvLWk3Wv87NPuBxAw=\n-----END PRIVATE KEY-----\n",
  "client_email": "firebase-adminsdk-0p6y8@taboor.iam.gserviceaccount.com",
  "client_id": "109320238324872529648",
  "auth_uri": "https://accounts.google.com/o/oauth2/auth",
  "token_uri": "https://oauth2.googleapis.com/token",
  "auth_provider_x509_cert_url": "https://www.googleapis.com/oauth2/v1/certs",
  "client_x509_cert_url": "https://www.googleapis.com/robot/v1/metadata/x509/firebase-adminsdk-0p6y8%40taboor.iam.gserviceaccount.com"
}
